Compress/Stage2/Stage2/quartus/simulation/modelsim/tb_length_accumulator.vcd
$date
	Sun Mar 23 16:20:17 2025
$end
$version
	ModelSim Version 10.1d
$end
$timescale
	1ps
$end
$scope module tb_length_accumulator $end
$var parameter 32 ! CACHE_LINE $end
$var parameter 32 " WORD_SIZE $end
$var reg 1 # clk $end
$var reg 1 $ i_reset $end
$var reg 7 % i_total_length [6:0] $end
$var reg 1 & o_store_flag $end
$var reg 7 ' o_shift_amount [6:0] $end
$var reg 1 ( o_send_back $end
$var reg 1 ) expected_store_flag $end
$var reg 7 * expected_shift_amount [6:0] $end
$var reg 1 + expected_send_back $end
$var reg 7 , sum_partial [6:0] $end
$var reg 8 - sum_total [7:0] $end
$scope task test_case $end
$var reg 7 . length [6:0] $end
$upscope $end
$scope module dut $end
$var parameter 32 / CACHE_LINE $end
$var parameter 32 0 WORD_SIZE $end
$var wire 1 1 clk $end
$var wire 1 2 i_reset $end
$var wire 1 3 i_total_length [6] $end
$var wire 1 4 i_total_length [5] $end
$var wire 1 5 i_total_length [4] $end
$var wire 1 6 i_total_length [3] $end
$var wire 1 7 i_total_length [2] $end
$var wire 1 8 i_total_length [1] $end
$var wire 1 9 i_total_length [0] $end
$var reg 1 : o_store_flag $end
$var reg 7 ; o_shift_amount [6:0] $end
$var reg 1 < o_send_back $end
$var reg 8 = sum_partial_reg [7:0] $end
$var reg 9 > sum_total_reg [8:0] $end
$var reg 8 ? next_sum_partial [7:0] $end
$var reg 9 @ next_sum_total [8:0] $end
$upscope $end
$upscope $end
$enddefinitions $end
#0
$dumpvars
0#
0$
b0 %
0&
b0 '
0(
x)
bx *
x+
b0 ,
b0 -
0:
b0 ;
0<
b0 =
b0 >
b0 ?
b0 @
bx .
b10000000 !
b1000000 "
b10000000 /
b1000000 0
01
02
09
08
07
06
05
04
03
$end
#5000
1#
11
#10000
0#
01
#15000
1$
b1010 .
b1010 %
b1010 ,
b1010 -
0)
b1010 *
0+
1#
12
18
16
11
b1010 ?
b1010 @
b1010 ;
b1010 '
#20000
0#
01
#25000
b10100 .
b10100 %
b11110 ,
b11110 -
b11110 *
1#
08
17
06
15
11
b10100 ?
b10100 @
b10100 ;
b10100 '
b1010 =
b1010 >
b11110 ?
b11110 @
b11110 ;
b11110 '
#30000
0#
01
#35000
b101000 .
b101000 %
b1000110 ,
b1000110 -
1)
b110 *
b110 ,
1#
07
16
05
14
11
b110010 ?
b110010 @
b110010 ;
b110010 '
b11110 =
b11110 >
b1000110 ?
b1000110 @
1:
b110 ;
b110 '
1&
#40000
0#
01
#45000
b101 .
b101 %
b1011 ,
b1001011 -
0)
b1011 *
1#
19
17
06
04
11
b100011 ?
b100011 @
0:
b100011 ;
b100011 '
0&
b110 =
b1000110 >
b1011 ?
b1001011 @
b1011 ;
b1011 '
#50000
0#
01
#55000
b111100 .
b111100 %
b1000111 ,
b10000111 -
1)
b111 *
b111 ,
1+
b111 -
1#
09
16
15
14
11
b1000010 ?
b10000010 @
1:
b10 ;
1<
1(
b10 '
1&
b1011 =
b1001011 >
b1000111 ?
b10000111 @
0:
1:
b111 ;
b111 '
#60000
0#
01
#65000
b1010 .
b1010 %
b10001 ,
b10001 -
0)
b10001 *
0+
1#
18
07
05
04
11
b10101 ?
b1010101 @
0:
b10101 ;
0<
0(
b10101 '
0&
b111 =
b111 >
b10001 ?
b10001 @
b10001 ;
b10001 '
#70000
0#
01
#75000
b10100 .
b10100 %
b100101 ,
b100101 -
b100101 *
1#
08
17
06
15
11
b11011 ?
b11011 @
b11011 ;
b11011 '
b10001 =
b10001 >
b100101 ?
b100101 @
b100101 ;
b100101 '
#80000
0#
01
#85000
b101000 .
b101000 %
b1001101 ,
b1001101 -
1)
b1101 *
b1101 ,
1#
07
16
05
14
11
b111001 ?
b111001 @
b111001 ;
b111001 '
b100101 =
b100101 >
b1001101 ?
b1001101 @
1:
b1101 ;
b1101 '
1&
#90000
0#
01
#95000
b101 .
b101 %
b10010 ,
b1010010 -
0)
b10010 *
1#
19
17
06
04
11
b101010 ?
b101010 @
0:
b101010 ;
b101010 '
0&
b1101 =
b1001101 >
b10010 ?
b1010010 @
b10010 ;
b10010 '
#100000
0#
01
#105000
b111100 .
b111100 %
b1001110 ,
b10001110 -
1)
b1110 *
b1110 ,
1+
b1110 -
1#
09
16
15
14
11
b1001001 ?
b10001001 @
1:
b1001 ;
1<
1(
b1001 '
1&
b10010 =
b1010010 >
b1001110 ?
b10001110 @
0:
1:
b1110 ;
b1110 '
#110000
0#
01
#115000
b1010 .
b1010 %
b11000 ,
b11000 -
0)
b11000 *
0+
1#
18
07
05
04
11
b11100 ?
b1011100 @
0:
b11100 ;
0<
0(
b11100 '
0&
b1110 =
b1110 >
b11000 ?
b11000 @
b11000 ;
b11000 '
#120000
0#
01
#125000
b10100 .
b10100 %
b101100 ,
b101100 -
b101100 *
1#
08
17
06
15
11
b100010 ?
b100010 @
b100010 ;
b100010 '
b11000 =
b11000 >
b101100 ?
b101100 @
b101100 ;
b101100 '
#130000
0#
01
#135000
b101000 .
b101000 %
b1010100 ,
b1010100 -
1)
b10100 *
b10100 ,
1#
07
16
05
14
11
b1000000 ?
b1000000 @
1:
b0 ;
b0 '
1&
b101100 =
b101100 >
b1010100 ?
b1010100 @
0:
1:
b10100 ;
b10100 '
#140000
0#
01
#145000
b101 .
b101 %
b11001 ,
b1011001 -
0)
b11001 *
1#
19
17
06
04
11
b110001 ?
b110001 @
0:
b110001 ;
b110001 '
0&
b10100 =
b1010100 >
b11001 ?
b1011001 @
b11001 ;
b11001 '
#150000
0#
01
#155000
b111100 .
b111100 %
b1010101 ,
b10010101 -
1)
b10101 *
b10101 ,
1+
b10101 -
1#
09
16
15
14
11
b1010000 ?
b10010000 @
1:
b10000 ;
1<
1(
b10000 '
1&
b11001 =
b1011001 >
b1010101 ?
b10010101 @
0:
1:
b10101 ;
b10101 '
#160000
0#
01
#165000
b1010 .
b1010 %
b11111 ,
b11111 -
0)
b11111 *
0+
1#
18
07
05
04
11
b100011 ?
b1100011 @
0:
b100011 ;
0<
0(
b100011 '
0&
b10101 =
b10101 >
b11111 ?
b11111 @
b11111 ;
b11111 '
#170000
0#
01
#175000
b10100 .
b10100 %
b110011 ,
b110011 -
b110011 *
1#
08
17
06
15
11
b101001 ?
b101001 @
b101001 ;
b101001 '
b11111 =
b11111 >
b110011 ?
b110011 @
b110011 ;
b110011 '
#180000
0#
01
#185000
b101000 .
b101000 %
b1011011 ,
b1011011 -
1)
b11011 *
b11011 ,
1#
07
16
05
14
11
b1000111 ?
b1000111 @
1:
b111 ;
b111 '
1&
b110011 =
b110011 >
b1011011 ?
b1011011 @
0:
1:
b11011 ;
b11011 '
#190000
0#
01
#195000
b101 .
b101 %
b100000 ,
b1100000 -
0)
b100000 *
1#
19
17
06
04
11
b111000 ?
b111000 @
0:
b111000 ;
b111000 '
0&
b11011 =
b1011011 >
b100000 ?
b1100000 @
b100000 ;
b100000 '
#200000
0#
01
#205000
b111100 .
b111100 %
b1011100 ,
b10011100 -
1)
b11100 *
b11100 ,
1+
b11100 -
1#
09
16
15
14
11
b1010111 ?
b10010111 @
1:
b10111 ;
1<
1(
b10111 '
1&
b100000 =
b1100000 >
b1011100 ?
b10011100 @
0:
1:
b11100 ;
b11100 '
#210000
0#
01
#215000
b1010 .
b1010 %
b100110 ,
b100110 -
0)
b100110 *
0+
1#
18
07
05
04
11
b101010 ?
b1101010 @
0:
b101010 ;
0<
0(
b101010 '
0&
b11100 =
b11100 >
b100110 ?
b100110 @
b100110 ;
b100110 '
#220000
0#
01
#225000
b10100 .
b10100 %
b111010 ,
b111010 -
b111010 *
1#
08
17
06
15
11
b110000 ?
b110000 @
b110000 ;
b110000 '
b100110 =
b100110 >
b111010 ?
b111010 @
b111010 ;
b111010 '
#230000
0#
01
#235000
b101000 .
b101000 %
b1100010 ,
b1100010 -
1)
b100010 *
b100010 ,
1#
07
16
05
14
11
b1001110 ?
b1001110 @
1:
b1110 ;
b1110 '
1&
b111010 =
b111010 >
b1100010 ?
b1100010 @
0:
1:
b100010 ;
b100010 '
#240000
0#
01
#245000
b101 .
b101 %
b100111 ,
b1100111 -
0)
b100111 *
1#
19
17
06
04
11
b111111 ?
b111111 @
0:
b111111 ;
b111111 '
0&
b100010 =
b1100010 >
b100111 ?
b1100111 @
b100111 ;
b100111 '
#250000
0#
01
#255000
b111100 .
b111100 %
b1100011 ,
b10100011 -
1)
b100011 *
b100011 ,
1+
b100011 -
1#
09
16
15
14
11
b1011110 ?
b10011110 @
1:
b11110 ;
1<
1(
b11110 '
1&
b100111 =
b1100111 >
b1100011 ?
b10100011 @
0:
1:
b100011 ;
b100011 '
#260000
0#
01
#265000
1#
11
b100011 =
b100011 >
b1011111 ?
b1011111 @
0:
1:
b11111 ;
0<
0(
b11111 '
#270000
0#
01
#275000
1#
11
b11111 =
b1011111 >
b1011011 ?
b10011011 @
0:
1:
b11011 ;
1<
1(
b11011 '
