Combine/Compress/Stage2/Stage2/quartus/simulation/modelsim/length_generation_tb.vcd
$date
	Sun Mar 23 16:52:59 2025
$end
$version
	ModelSim Version 10.1d
$end
$timescale
	1ps
$end
$scope module length_generation_tb $end
$var parameter 32 ! CACHE_LINE $end
$var parameter 32 " WORD_SIZE $end
$var reg 1 # i_clk $end
$var reg 1 $ i_reset $end
$var reg 4 % i_type_matched2 [3:0] $end
$var reg 2 & i_type_matched1 [1:0] $end
$var reg 2 ' i_match_s [1:0] $end
$var reg 1 ( o_store_flag $end
$var reg 7 ) o_shift_amount [6:0] $end
$var reg 1 * o_send_back $end
$var reg 7 + expected_shift_amount [6:0] $end
$var reg 1 , expected_store_flag $end
$var reg 1 - expected_send_back $end
$scope task test_case $end
$var reg 4 . type_matched2 [3:0] $end
$var reg 2 / type_matched1 [1:0] $end
$var reg 2 0 match_s [1:0] $end
$upscope $end
$scope module dut $end
$var parameter 32 1 CACHE_LINE $end
$var parameter 32 2 WORD_SIZE $end
$var wire 1 3 i_clk $end
$var wire 1 4 i_reset $end
$var wire 1 5 i_type_matched2 [3] $end
$var wire 1 6 i_type_matched2 [2] $end
$var wire 1 7 i_type_matched2 [1] $end
$var wire 1 8 i_type_matched2 [0] $end
$var wire 1 9 i_type_matched1 [1] $end
$var wire 1 : i_type_matched1 [0] $end
$var wire 1 ; i_match_s [1] $end
$var wire 1 < i_match_s [0] $end
$var reg 1 = o_store_flag $end
$var reg 7 > o_shift_amount [6:0] $end
$var reg 1 ? o_send_back $end
$var reg 2 @ i_type_matched21 [1:0] $end
$var reg 2 A i_type_matched22 [1:0] $end
$var reg 1 B i_type_matched11 $end
$var reg 1 C i_type_matched12 $end
$var reg 1 D i_match_s1 $end
$var reg 1 E i_match_s2 $end
$var reg 6 F o_length1 [5:0] $end
$var reg 6 G o_length2 [5:0] $end
$var reg 7 H total_length [6:0] $end
$var reg 3 I o_encoded1 [2:0] $end
$var reg 3 J o_encoded2 [2:0] $end
$scope module length_accumulator $end
$var parameter 32 K CACHE_LINE $end
$var parameter 32 L WORD_SIZE $end
$var wire 1 3 i_clk $end
$var wire 1 4 i_reset $end
$var wire 1 M i_total_length [6] $end
$var wire 1 N i_total_length [5] $end
$var wire 1 O i_total_length [4] $end
$var wire 1 P i_total_length [3] $end
$var wire 1 Q i_total_length [2] $end
$var wire 1 R i_total_length [1] $end
$var wire 1 S i_total_length [0] $end
$var reg 1 T o_store_flag $end
$var reg 7 U o_shift_amount [6:0] $end
$var reg 1 V o_send_back $end
$var reg 8 W sum_partial_reg [7:0] $end
$var reg 9 X sum_total_reg [8:0] $end
$var reg 8 Y next_sum_partial [7:0] $end
$var reg 9 Z next_sum_total [8:0] $end
$upscope $end
$scope module total_length_generator $end
$var wire 1 [ i_word1_length [5] $end
$var wire 1 \ i_word1_length [4] $end
$var wire 1 ] i_word1_length [3] $end
$var wire 1 ^ i_word1_length [2] $end
$var wire 1 _ i_word1_length [1] $end
$var wire 1 ` i_word1_length [0] $end
$var wire 1 a i_word2_length [5] $end
$var wire 1 b i_word2_length [4] $end
$var wire 1 c i_word2_length [3] $end
$var wire 1 d i_word2_length [2] $end
$var wire 1 e i_word2_length [1] $end
$var wire 1 f i_word2_length [0] $end
$var reg 7 g o_total_length [6:0] $end
$upscope $end
$scope module word_length_generator1 $end
$var wire 1 h i_type_matched1 $end
$var wire 1 i i_match_s1 $end
$var wire 1 j i_type_matched2 [1] $end
$var wire 1 k i_type_matched2 [0] $end
$var reg 6 l o_length [5:0] $end
$var reg 3 m o_encoded [2:0] $end
$upscope $end
$scope module word_length_generator2 $end
$var wire 1 n i_type_matched1 $end
$var wire 1 o i_match_s1 $end
$var wire 1 p i_type_matched2 [1] $end
$var wire 1 q i_type_matched2 [0] $end
$var reg 6 r o_length [5:0] $end
$var reg 3 s o_encoded [2:0] $end
$upscope $end
$upscope $end
$upscope $end
$enddefinitions $end
#0
$dumpvars
0#
1$
b0 %
b0 &
b0 '
0(
bx )
0*
bx +
x,
x-
0=
bx >
0?
b0 @
b0 A
0B
0C
0D
0E
b100010 F
b100010 G
b1000100 H
b101 I
b101 J
0T
bx U
0V
bx W
bx X
bx Y
bx Z
b1000100 g
b100010 l
b101 m
b100010 r
b101 s
bx .
bx /
bx 0
b10000000 !
b1000000 "
b10000000 1
b1000000 2
b10000000 K
b1000000 L
03
14
08
07
06
05
0:
09
0<
0;
0S
0R
1Q
0P
0O
0N
1M
0`
1_
0^
0]
0\
1[
0f
1e
0d
0c
0b
1a
0h
0i
0k
0j
0n
0o
0q
0p
$end
#5000
1#
13
#10000
0#
03
#15000
0$
1#
04
13
b0 W
b0 X
b1000100 Y
b1000100 Z
1T
b100 U
b100 >
1=
1(
b100 )
#20000
0#
03
#25000
1$
b1100 .
b11 /
b1 0
b1100 %
b11 &
b1 '
1#
1<
1:
19
16
15
b11 A
1C
1B
1D
1q
1p
1n
1h
1i
b100 m
b0 m
b1 s
b1 J
b0 I
14
13
b110 r
b10 l
b10 F
b110 G
1d
0a
0[
b1000 g
b1000 H
0Q
1P
0M
b1000 Y
b1000 Z
0T
b1000 U
b1000 >
0=
0(
b1000 )
b100 W
b1000100 X
b1100 Y
b1001100 Z
b1100 U
b1100 >
b1100 )
#30000
0#
03
#35000
0,
b0 +
0-
b1010 .
b0 /
b10 0
b1010 %
b0 &
b10 '
1#
0<
1;
0:
09
17
06
b10 A
b10 @
0C
0B
1E
0D
1j
0q
0n
0h
1o
0i
b0 s
b10 s
b1 m
b11 m
b11 I
b10 J
13
b10000 l
b1100 r
b1100 G
b10000 F
0_
1\
0e
1c
b11100 g
b11100 H
1Q
1O
b100000 Y
b1100000 Z
b100000 U
b100000 >
b100000 )
b1100 W
b1001100 X
b101000 Y
b1101000 Z
b101000 U
b101000 >
b101000 )
#40000
0#
03
#45000
b111 .
b1 /
b11 0
b111 %
b1 &
b11 '
1#
1<
1:
18
16
05
b1 A
b11 @
1B
1D
1k
1q
0p
1h
1i
b10 m
b0 m
b0 I
13
b10 l
b10 F
1_
0\
b1110 g
b1110 H
1R
0O
b11010 Y
b1011010 Z
b11010 U
b11010 >
b11010 )
b101000 W
b1101000 X
b110110 Y
b1110110 Z
b110110 U
b110110 >
b110110 )
#50000
0#
03
#55000
b0 .
b10 /
b0 0
b0 %
b10 &
b0 '
1#
0<
0;
0:
19
08
07
06
b0 A
b0 @
1C
0B
0E
0D
0k
0j
0q
1n
0h
0o
0i
b110 s
b111 s
b101 s
b100 m
b101 m
b101 I
b101 J
13
b100010 l
b100010 r
b100010 G
b100010 F
1[
1e
0d
0c
1a
b1000100 g
b1000100 H
0R
0P
1M
b1101100 Y
b10101100 Z
1T
b101100 U
1V
1?
b101100 >
1=
1(
b101100 )
1*
b110110 W
b1110110 X
b1111010 Y
b10111010 Z
0T
1T
b111010 U
b111010 >
b111010 )
#60000
0#
03
#65000
b1111 .
b11 /
b11 0
b1111 %
b11 &
b11 '
1#
1<
1;
1:
18
17
16
15
b11 A
b11 @
1B
1E
1D
1k
1j
1q
1p
1h
1o
1i
b1 s
b0 s
b1 m
b0 m
b0 I
b0 J
13
b10 l
b10 r
b10 G
b10 F
0[
0a
b100 g
b100 H
0M
b111010 Y
b1111010 Z
0T
0V
0?
0=
0(
0*
b111010 W
b111010 X
b111110 Y
b111110 Z
b111110 U
b111110 >
b111110 )
#70000
0#
03
#75000
b100 .
b1 /
b1 0
b100 %
b1 &
b1 '
1#
0;
09
08
07
05
b1 A
b0 @
0C
0E
0k
0j
0p
0n
0o
b100 s
b100 J
13
b11000 r
b11000 G
0e
1c
1b
b11010 g
b11010 H
1R
0Q
1P
1O
b1010100 Y
b1010100 Z
1T
b10100 U
b10100 >
1=
1(
b10100 )
b111110 W
b111110 X
b1011000 Y
b1011000 Z
0T
1T
b11000 U
b11000 >
b11000 )
#80000
0#
03
#85000
b11 .
b11 %
1#
18
17
06
b0 A
b11 @
1k
1j
0q
b101 s
b101 J
13
b100010 r
b100010 G
1e
0c
0b
1a
b100100 g
b100100 H
0R
1Q
0P
0O
1N
b1100010 Y
b1100010 Z
0T
1T
b100010 U
b100010 >
b100010 )
b11000 W
b1011000 X
b111100 Y
b1111100 Z
0T
b111100 U
b111100 >
0=
0(
b111100 )
#90000
0#
03
#95000
b101 .
b10 /
b101 %
b10 &
1#
0:
19
07
16
b1 A
b1 @
1C
0B
0j
1q
1n
0h
b100 s
b10 m
b10 I
b100 J
13
b1100 l
b11000 r
b11000 G
b1100 F
0_
1^
1]
0e
1c
1b
0a
b111100 W
b1111100 X
b1100000 Y
b10100000 Z
1T
b100000 U
1V
1?
b100000 >
1=
1(
b100000 )
1*
#100000
0#
03
#105000
b1101 .
b1101 %
1#
15
b11 A
1p
b101 s
b1 s
b1 J
13
b110 r
b110 G
1e
1d
0c
0b
b10010 g
b10010 H
1R
0Q
1O
0N
b1001110 Y
b10001110 Z
0T
1T
b1110 U
b1110 >
b1110 )
b100000 W
b100000 X
b110010 Y
b110010 Z
0T
b110010 U
0V
0?
b110010 >
0=
0(
b110010 )
0*
#110000
0#
03
#115000
b0 /
b0 &
1#
09
0C
0n
13
b110010 W
b110010 X
b1000100 Y
b1000100 Z
1T
b100 U
b100 >
1=
1(
b100 )
#120000
0#
03
#125000
b110 .
b1 /
b10 0
b110 %
b1 &
b10 '
1#
0<
1;
1:
08
17
05
b1 A
b10 @
1B
1E
0D
0k
1j
0p
1h
1o
0i
b0 s
b10 s
b11 m
b11 I
b10 J
13
b10000 l
b1100 r
b1100 G
b10000 F
0^
0]
1\
0e
1c
b11100 g
b11100 H
0R
1Q
1P
b1001110 Y
b1001110 Z
0T
1T
b1110 U
b1110 >
b1110 )
b100 W
b1000100 X
b100000 Y
b1100000 Z
0T
b100000 U
b100000 >
0=
0(
b100000 )
#130000
0#
03
#135000
b101 .
b11 /
b101 %
b11 &
1#
19
18
07
b1 @
1C
1k
0j
1n
b0 s
b111 m
b110 m
b100 m
b100 I
b0 J
13
b11000 l
b10 r
b10 G
b11000 F
1]
1e
0d
0c
b11010 g
b11010 H
1R
0Q
b11110 Y
b1011110 Z
b11110 U
b11110 >
b11110 )
b100000 W
b1100000 X
b111010 Y
b1111010 Z
b111010 U
b111010 >
b111010 )
#140000
0#
03
#145000
b1111 .
b10 /
b1111 %
b10 &
1#
0:
17
15
b11 A
b11 @
0B
1j
1p
0h
b101 m
b1 m
b1 I
13
b110 l
b110 F
1_
1^
0]
0\
b1000 g
b1000 H
0R
0O
b101000 Y
b1101000 Z
b101000 U
b101000 >
b101000 )
b111010 W
b1111010 X
b1000010 Y
b10000010 Z
1T
b10 U
1V
1?
b10 >
1=
1(
b10 )
1*
#150000
0#
03
#155000
b1000 .
b1 /
b0 0
b1000 %
b1 &
b0 '
1#
0;
1:
09
08
07
06
b10 A
b0 @
0C
1B
0E
0k
0j
0q
0n
1h
0o
b1 s
b11 s
b101 m
b101 I
b11 J
13
b100010 l
b10000 r
b10000 G
b100010 F
0^
1[
0e
1b
b110010 g
b110010 H
1R
0P
1O
1N
b1101100 Y
b10101100 Z
0T
1T
b101100 U
b101100 >
b101100 )
b10 W
b10 X
b110100 Y
b110100 Z
0T
b110100 U
0V
0?
b110100 >
0=
0(
b110100 )
0*
#160000
0#
03
#165000
b1101 .
b1 0
b1101 %
b1 '
1#
1<
18
16
b11 A
b1 @
1D
1k
1q
1i
b1 m
b1 s
b0 m
b1 J
b0 I
13
b110 r
b10 l
b10 F
b110 G
1e
1d
0b
0[
b1000 g
b1000 H
0R
1P
0O
0N
b1010 Y
b1010 Z
b1010 U
b1010 >
b1010 )
b110100 W
b110100 X
b111100 Y
b111100 Z
b111100 U
b111100 >
b111100 )
#170000
0#
03
#175000
1#
13
b111100 W
b111100 X
b1000100 Y
b1000100 Z
1T
b100 U
b100 >
1=
1(
b100 )
#180000
0#
03
#185000
1#
13
b100 W
b1000100 X
b1100 Y
b1001100 Z
0T
b1100 U
b1100 >
0=
0(
b1100 )
