Combine/Compress/Stage1/Design/quartus/simulation/modelsim/tb_word_length_genetator.vcd
$date
	Wed Mar 19 10:16:26 2025
$end
$version
	ModelSim Version 10.1d
$end
$timescale
	1ps
$end
$scope module tb_word_length_genetator $end
$var reg 1 ! i_type_matched1 $end
$var reg 1 " i_match_s1 $end
$var reg 2 # i_type_matched2 [1:0] $end
$var wire 1 $ o_length [5] $end
$var wire 1 % o_length [4] $end
$var wire 1 & o_length [3] $end
$var wire 1 ' o_length [2] $end
$var wire 1 ( o_length [1] $end
$var wire 1 ) o_length [0] $end
$var wire 1 * o_encoded [2] $end
$var wire 1 + o_encoded [1] $end
$var wire 1 , o_encoded [0] $end
$var integer 32 - test $end
$scope module dut $end
$var wire 1 . i_type_matched1 $end
$var wire 1 / i_match_s1 $end
$var wire 1 0 i_type_matched2 [1] $end
$var wire 1 1 i_type_matched2 [0] $end
$var reg 6 2 o_length [5:0] $end
$var reg 3 3 o_encoded [2:0] $end
$upscope $end
$upscope $end
$enddefinitions $end
#0
$dumpvars
0!
0"
b0 #
b100010 2
b101 3
b0 -
0)
1(
0'
0&
0%
1$
1,
0+
1*
0.
0/
01
00
$end
#10000
b1 -
1!
1.
#20000
b10 -
1"
0!
1/
0.
b100 3
b110 3
b10 3
0,
1+
0*
b1100 2
0(
1'
1&
0$
#30000
b11 -
1!
1.
b0 3
0+
b10 2
1(
0'
0&
#40000
b100 -
0"
0!
b1 #
0/
0.
11
b100 3
1*
b11000 2
0(
1&
1%
#50000
b101 -
1!
1.
#60000
b110 -
1"
0!
1/
0.
b110 3
b10 3
1+
0*
b1100 2
1'
0%
#70000
b111 -
1!
1.
b0 3
0+
b10 2
1(
0'
0&
#80000
b1000 -
0"
0!
b10 #
0/
0.
01
10
b1 3
b11 3
1,
1+
b10000 2
0(
1%
#90000
b1001 -
1!
1.
#100000
b1010 -
1"
0!
1/
0.
b10 3
0,
b1100 2
1'
1&
0%
#110000
b1011 -
1!
1.
b0 3
0+
b10 2
1(
0'
0&
#120000
b1100 -
0"
0!
b11 #
0/
0.
11
b1 3
1,
b110 2
1'
#130000
b1101 -
1!
1.
#140000
b1110 -
1"
0!
1/
0.
b0 3
0,
b10 2
0'
#150000
b1111 -
1!
1.
#160000
b10000 -
